# PRNG seed 2635799162
MEME version 5.0.2

ALPHABET "DNA" DNA-LIKE
A "Adenine" CC0000 ~ T "Thymine" 008000
C "Cytosine" 0000CC ~ G "Guanine" FFB300
N "Any base" = ACGT
X = ACGT
. = ACGT
V "Not T" = ACG
H "Not G" = ACT
D "Not C" = AGT
B "Not A" = CGT
M "Amino" = AC
R "Purine" = AG
W "Weak" = AT
S "Strong" = CG
Y "Pyrimidine" = CT
K "Keto" = GT
U = T
END ALPHABET

Background letter frequencies
A 0.250 C 0.250 G 0.250 T 0.250

MOTIF 1 random
letter-probability matrix: alength= 4 w= 11
0.200000 0.000000 0.400000 0.400000
0.300000 0.050000 0.150000 0.500000
0.000000 0.600000 0.400000 0.000000
0.100000 0.100000 0.750000 0.050000
0.050000 0.400000 0.000000 0.550000
0.000000 0.000000 0.000000 1.000000
0.050000 0.100000 0.500000 0.350000
0.000000 0.600000 0.400000 0.000000
1.000000 0.000000 0.000000 0.000000
0.000000 0.000000 1.000000 0.000000
0.000000 1.000000 0.000000 0.000000

